[
  {
      "accessibilityLabel": "Clockwork: Operating system in your browser",
      "imageUrl": "/assets/images/banner/clockwork.png",
      "websiteUrl": "https://clockwork-os.vercel.app/"
  },
  {
      "accessibilityLabel": "Zatoga: Play games, view cheats, have fun, and bypass restrictions.",
      "imageUrl": "https://storage.googleapis.com/zatoga-assets/banners/falling-gems.gif",
      "websiteUrl": "https://docs.google.com/document/d/e/2PACX-1vS4yn7bcjyDDp88BJpX88l-dmqg9G1aF1U8aLNhq7TG1ml7zmccG7FxN4zUaYZJfmgiDSK_DuYluPtJ/pub"
  },
  {
      "accessibilityLabel": "Zatoga: Play games, view cheats, have fun, and bypass restrictions.",
      "imageUrl": "https://storage.googleapis.com/zatoga-assets/banners/fishy.gif",
      "websiteUrl": "https://docs.google.com/document/d/e/2PACX-1vS4yn7bcjyDDp88BJpX88l-dmqg9G1aF1U8aLNhq7TG1ml7zmccG7FxN4zUaYZJfmgiDSK_DuYluPtJ/pub"
  },
  {
      "accessibilityLabel": "Advertise with Xylo",
      "imageUrl": "/assets/images/banner/xylomo.png",
      "websiteUrl": "https://xylo.42.ar/"
  },
  {
      "accessibilityLabel": "Zatoga: Play games, view cheats, have fun, and bypass restrictions.",
      "imageUrl": "https://storage.googleapis.com/zatoga-assets/banners/highway.gif",
      "websiteUrl": "https://docs.google.com/document/d/e/2PACX-1vS4yn7bcjyDDp88BJpX88l-dmqg9G1aF1U8aLNhq7TG1ml7zmccG7FxN4zUaYZJfmgiDSK_DuYluPtJ/pub"
  }
]